Itkonen Structures 50 Years On
…
Comments

ItkonenDemographics %>% 
  filter(!is.na(comments))

## # A tibble: 88 × 6
##    workerid comments                               age   gender region education
##       <int> <chr>                                  <chr> <chr>  <chr>  <chr>    
##  1     1025 ""                                     23    Male   Päijä… 0        
##  2     1026 ""                                     24    Male   Päijä… 1        
##  3     1027 "ei palautetta"                        37    Female Pirka… 4        
##  4     1028 ""                                     38    Female Etelä… 2        
##  5     1029 ""                                     51    Male   Varsi… 3        
##  6     1030 ""                                     20    Female Pohjo… 2        
##  7     1031 ""                                     21    Female Uusim… 0        
##  8     1032 ""                                     60    Male   Uusim… 3        
##  9     1033 ""                                     29    Male   Pohjo… -1       
## 10     1034 "Jotkin lauseet olivat yllättävän han… 29    Male   Pohjo… 3        
## # … with 78 more rows

ReplicationOnly %>% 
  group_by(item,voice,type,responseCase) %>% 
  count() %>% 
  pivot_wider(names_from = responseCase,values_from = n) %>% 
  replace_na(list(gen=0,nom=0)) %>% 
  summarize(NomRate = nom/(nom+gen),
            GenRate = 1-NomRate)

## `summarise()` has grouped output by 'item', 'voice'. You can override using the
## `.groups` argument.

## # A tibble: 22 × 5
## # Groups:   item, voice [14]
##    item        voice   type        NomRate GenRate
##    <chr>       <chr>   <chr>         <dbl>   <dbl>
##  1 harvinainen active  existential   0.932  0.0682
##  2 harvinainen active  predicative   1      0     
##  3 harvinainen passive existential   0.955  0.0455
##  4 harvinainen passive predicative   0.977  0.0227
##  5 jokin       active  existential   0.898  0.102 
##  6 jokin       passive existential   0.989  0.0114
##  7 kappalainen active  existential   0.739  0.261 
##  8 kappalainen active  predicative   0.977  0.0227
##  9 kappalainen passive existential   0.875  0.125 
## 10 kappalainen passive predicative   0.989  0.0114
## # … with 12 more rows
